Data Wrangling
…
#Changing labels to make it easier to work with
contract$labels<-gsub(".*_", "", contract$labels)
contract$labels<-gsub("\\.txt$","",contract$labels)
contract$labels<-gsub(" ", "_", contract$labels)

rm(df)

Resulting dataframes

I end up with two DFs, a training and a test DF

(select(training_DF,1:5))

# A tibble: 34 x 5
   labels  `100` `100.2` `100.4` `100.6`
   <chr>   <dbl>   <dbl>   <dbl>   <dbl>
 1 1      0.652   0.871    0.756   0.650
 2 1      0.674   1.11     0.852   0.792
 3 1      0.25    0.542    0.513   0.305
 4 1      0.927   0.957    0.75    0.807
 5 1      1.40    1.53     1.42    1.28 
 6 2      0.394   0.532    0.475   0.457
 7 2      0.688   0.920    0.699   0.636
 8 2      0.152   0.187    0.199   0.164
 9 2      0.0965  0.0877   0.140   0.105
10 2      1.15    1.42     1.14    1.11 
# ... with 24 more rows
…
